Database name: cs-db


mongodb://<dbuser>:<dbpassword>@ds157864.mlab.com:57864/cs-db
Users:
	- u:admin - pass:a12345

//with admin user.
mongoose.connect('mongodb://admin:a12345@ds157864.mlab.com:57864/cs-db', {useMongoClient:true}, err=>{
    if(!err){
        console.log('connected to mongodsasdasdadsb');
    }
});
